[
{
    "id": 1,
    "name": "Almond Toe Court Shoes",
    "imageUrl": "1.jpg",
    "description": "",
    "gender": "Women",
    "category": "Footwear",
    "colour": "Patent Black",
    "quantity": 5,
    "price": 99
},
{
    "id": 2,
    "name": "Suede Shoes",
    "imageUrl": "2.jpg",
    "description": "",
    "gender": "Women",
    "category": "Footwear",
    "colour": "Blue",
    "quantity": 4,
    "price": 42
},
{
    "id": 3,
    "name": "Leather Driver Saddle Loafers",
    "imageUrl": "3.jpg",
    "description": "",
    "gender": "Men",
    "category": "Footwear",
    "colour": "Tan",
    "quantity": 12,
    "price": 34
},
{
    "id": 4,
    "name": "Flip Flops",
    "imageUrl": "4.jpg",
    "description": "",
    "gender": "Men",
    "category": "Footwear",
    "colour": "Red",
    "quantity": 6,
    "price": 19
},
{
    "id": 5,
    "name": "Flip Flops",
    "imageUrl": "5.jpg",
    "description": "",
    "gender": "Men",
    "category": "Footwear",
    "colour": "Blue",
    "quantity": 0,
    "price": 19
},
{
    "id": 6,
    "name": "Gold Button Cardigan",
    "imageUrl": "6.jpg",
    "description": "",
    "gender": "Women",
    "category": "Casualwear",
    "colour": "Black",
    "quantity": 6,
    "price": 167
},
{
    "id": 7,
    "name": "Cotton Shorts",
    "imageUrl": "7.jpg",
    "description": "",
    "gender": "Women",
    "category": "Casualwear",
    "colour": "Medium Red",
    "quantity": 5,
    "price": 30
},
{
    "id": 8,
    "name": "Fine Stripe Short Sleeve Shirt",
    "imageUrl": "8.jpg",
    "description": "",
    "gender": "Men",
    "category": "Casualwear",
    "colour": "Grey",
    "quantity": 9,
    "price": 49.99
},
{
    "id": 9,
    "name": "Fine Stripe Short Sleeve Shirt",
    "imageUrl": "9.jpg",
    "description": "",
    "gender": "Men",
    "category": "Casualwear",
    "colour": "Green",
    "quantity": 3,
    "price": 39.99
},
{
    "id": 10,
    "name": "Sharkskin Waistcoat",
    "imageUrl": "10.jpg",
    "description": "",
    "gender": "Men",
    "category": "Formalwear",
    "colour": "Charcoal",
    "quantity": 2,
    "price": 75
},
{
    "id": 11,
    "name": "Lightweight Patch Pocket Blazer",
    "imageUrl": "11.jpeg",
    "description": "",
    "gender": "Men",
    "category": "Formalwear",
    "colour": "Deer",
    "quantity": 1,
    "price": 175
},
{
    "id": 12,
    "name": "Bird Print Dress",
    "imageUrl": "12.jpg",
    "description": "",
    "gender": "Women",
    "category": "Formalwear",
    "colour": "Black",
    "quantity": 10,
    "price": 270
},
{
    "id": 13,
    "name": "Mid Twist Cut-Out Dress",
    "imageUrl": "13.jpg",
    "description": "",
    "gender": "Women",
    "category": "Formalwear",
    "colour": "Pink",
    "quantity": 5,
    "price": 540
}]
